{
  "designTypeColors": {
    "Hyper Tech": [
      175,
      150,
      255,
      255
    ]
  },
  "graphics": {
    "dive_missions":{
      "dive_gate":"graphics/icons/missions/dive_gate.png",
    },
    "dive_cargo":{
      "dive_gate":"graphics/icons/cargo/gate_suite.png",
    }
  },
  "ruleCommandPackages":[
    "org.gabs.hyperdiving.impl.campaign.rulecmd",
  ]
}