name,id,tags,tech/manufacturer,rarity,base price,stack size,cargo space,baseRaidDanger,icon,sound id,sound id drop,plugin,plugin params,desc,order
Gate Enhancement Suite,dive_gateSuite,mission_item,,,100000,1000,1,,graphics/icons/cargo/gate_suite.png,ui_chip_pickup,ui_industry_bp_drop,org.gabs.hyperdiving.campaign.impl.items.Dive_GateSuite,,"A collection of programs and feedback loops designed to be jury-rigged into an scanned gate.

This suite should allow a deeper connection to the gate network, using the last known jump locations from fleets that have previously utilized the aforementioned gate as a recurssive guiding beacon.

As long as the link is not severed, one can continuosly go deeper into the gate network.

Caution is advised, for one cannot know what lurks in these lost systems.",0
,,,,,,,,,,,,,,,